EESchema Schematic File Version 4
EELAYER 30 0
EELAYER END
$Descr A4 11693 8268
encoding utf-8
Sheet 1 1
Title ""
Date ""
Rev ""
Comp ""
Comment1 ""
Comment2 ""
Comment3 ""
Comment4 ""
$EndDescr
$Comp
L atmega48pv-10pu:ATmega328P-PU U1
U 1 1 5FD60CAF
P 5950 3750
F 0 "U1" H 6400 5200 50  0000 R CNN
F 1 "ATmega328P-PU" V 5900 3750 50  0000 R CNN
F 2 "Package_DIP:DIP-28_W7.62mm" H 5950 3750 50  0001 C CIN
F 3 "http://ww1.microchip.com/downloads/en/DeviceDoc/ATmega328_P%20AVR%20MCU%20with%20picoPower%20Technology%20Data%20Sheet%2040001984A.pdf" H 5950 3750 50  0001 C CNN
	1    5950 3750
	1    0    0    -1  
$EndComp
Text GLabel 6750 2850 2    50   Input ~ 0
MOSI
Text GLabel 6750 2950 2    50   Input ~ 0
MISO
Text GLabel 6750 3050 2    50   Input ~ 0
SCK
$Comp
L Device:R_Small R1
U 1 1 5FD63123
P 6750 3900
F 0 "R1" H 6809 3946 50  0000 L CNN
F 1 "10K" H 6809 3855 50  0000 L CNN
F 2 "" H 6750 3900 50  0001 C CNN
F 3 "~" H 6750 3900 50  0001 C CNN
	1    6750 3900
	1    0    0    -1  
$EndComp
Text GLabel 6950 4050 2    50   Input ~ 0
SCK
Wire Wire Line
	6550 4050 6750 4050
Wire Wire Line
	6750 4000 6750 4050
Connection ~ 6750 4050
Wire Wire Line
	6750 4050 6950 4050
Text GLabel 6800 3750 2    50   Input ~ 0
5V
Wire Wire Line
	6750 3800 6750 3750
Wire Wire Line
	6750 3750 6800 3750
$Comp
L Device:Crystal Y1
U 1 1 5FD67109
P 7400 3300
F 0 "Y1" V 7354 3431 50  0000 L CNN
F 1 "16MHz" V 7445 3431 50  0000 L CNN
F 2 "" H 7400 3300 50  0001 C CNN
F 3 "~" H 7400 3300 50  0001 C CNN
	1    7400 3300
	0    1    1    0   
$EndComp
Wire Wire Line
	6550 3150 7400 3150
Wire Wire Line
	6550 3250 7100 3250
Wire Wire Line
	7100 3250 7100 3450
Wire Wire Line
	7100 3450 7400 3450
$Comp
L Device:C_Small C1
U 1 1 5FD696A4
P 7900 3450
F 0 "C1" V 8050 3450 50  0000 C CNN
F 1 "22pF" V 8150 3450 50  0000 C CNN
F 2 "" H 7900 3450 50  0001 C CNN
F 3 "~" H 7900 3450 50  0001 C CNN
	1    7900 3450
	0    1    1    0   
$EndComp
$Comp
L Device:C_Small C2
U 1 1 5FD6A80C
P 7900 3150
F 0 "C2" V 7750 3150 50  0000 C CNN
F 1 "22pF" V 7650 3150 50  0000 C CNN
F 2 "" H 7900 3150 50  0001 C CNN
F 3 "~" H 7900 3150 50  0001 C CNN
	1    7900 3150
	0    1    1    0   
$EndComp
Wire Wire Line
	7400 3150 7800 3150
Connection ~ 7400 3150
Wire Wire Line
	7400 3450 7800 3450
Connection ~ 7400 3450
Wire Wire Line
	8000 3150 8100 3150
Wire Wire Line
	8100 3150 8100 3300
Wire Wire Line
	8100 3450 8000 3450
$Comp
L power:GND #PWR?
U 1 1 5FD6BDFB
P 8300 3350
F 0 "#PWR?" H 8300 3100 50  0001 C CNN
F 1 "GND" H 8305 3177 50  0000 C CNN
F 2 "" H 8300 3350 50  0001 C CNN
F 3 "" H 8300 3350 50  0001 C CNN
	1    8300 3350
	1    0    0    -1  
$EndComp
Wire Wire Line
	8100 3300 8300 3300
Wire Wire Line
	8300 3300 8300 3350
Connection ~ 8100 3300
Wire Wire Line
	8100 3300 8100 3450
Text GLabel 6150 2000 2    50   Input ~ 0
5v
Wire Wire Line
	6150 2000 6050 2000
Wire Wire Line
	5850 2000 5850 2250
Wire Wire Line
	6050 2250 6050 2000
Connection ~ 6050 2000
Wire Wire Line
	6050 2000 5850 2000
$Comp
L power:GND #PWR?
U 1 1 5FD6D0C1
P 6050 5400
F 0 "#PWR?" H 6050 5150 50  0001 C CNN
F 1 "GND" H 6055 5227 50  0000 C CNN
F 2 "" H 6050 5400 50  0001 C CNN
F 3 "" H 6050 5400 50  0001 C CNN
	1    6050 5400
	1    0    0    -1  
$EndComp
Wire Wire Line
	6050 5250 6050 5350
Wire Wire Line
	5850 5250 5850 5350
Wire Wire Line
	5850 5350 6050 5350
Connection ~ 6050 5350
Wire Wire Line
	6050 5350 6050 5400
Wire Wire Line
	6550 2850 6750 2850
Wire Wire Line
	6550 2950 6750 2950
Wire Wire Line
	6550 3050 6750 3050
$Comp
L Device:C_Small C3
U 1 1 5FD6ED6A
P 5600 1800
F 0 "C3" V 5450 1800 50  0000 C CNN
F 1 "0.1uF" V 5350 1800 50  0000 C CNN
F 2 "" H 5600 1800 50  0001 C CNN
F 3 "~" H 5600 1800 50  0001 C CNN
	1    5600 1800
	0    1    1    0   
$EndComp
$Comp
L Device:C_Small C4
U 1 1 5FD6F0D6
P 5600 2000
F 0 "C4" V 5750 2000 50  0000 C CNN
F 1 "0.1uF" V 5850 2000 50  0000 C CNN
F 2 "" H 5600 2000 50  0001 C CNN
F 3 "~" H 5600 2000 50  0001 C CNN
	1    5600 2000
	0    1    1    0   
$EndComp
Wire Wire Line
	5700 2000 5850 2000
Connection ~ 5850 2000
Wire Wire Line
	5700 1800 5850 1800
Wire Wire Line
	5850 1800 5850 2000
Wire Wire Line
	5500 1800 5400 1800
Wire Wire Line
	5400 1800 5400 1900
Wire Wire Line
	5400 2000 5500 2000
$Comp
L power:GND #PWR?
U 1 1 5FD72BCD
P 5250 1950
F 0 "#PWR?" H 5250 1700 50  0001 C CNN
F 1 "GND" H 5255 1777 50  0000 C CNN
F 2 "" H 5250 1950 50  0001 C CNN
F 3 "" H 5250 1950 50  0001 C CNN
	1    5250 1950
	1    0    0    -1  
$EndComp
Wire Wire Line
	5250 1950 5250 1900
Wire Wire Line
	5250 1900 5400 1900
Connection ~ 5400 1900
Wire Wire Line
	5400 1900 5400 2000
$Comp
L Device:R_Small R1
U 1 1 5FD738BF
P 6850 2550
F 0 "R1" V 6800 2400 50  0000 C CNN
F 1 "1K" V 6850 2550 50  0000 C CNN
F 2 "" H 6850 2550 50  0001 C CNN
F 3 "~" H 6850 2550 50  0001 C CNN
	1    6850 2550
	0    1    1    0   
$EndComp
$Comp
L Device:LED D1
U 1 1 5FD74780
P 7200 2550
F 0 "D1" H 7350 2450 50  0000 C CNN
F 1 "LED" H 7200 2450 50  0000 C CNN
F 2 "" H 7200 2550 50  0001 C CNN
F 3 "~" H 7200 2550 50  0001 C CNN
	1    7200 2550
	-1   0    0    1   
$EndComp
Wire Wire Line
	6550 2550 6750 2550
Wire Wire Line
	6950 2550 7050 2550
$Comp
L power:GND #PWR?
U 1 1 5FD77430
P 7550 2550
F 0 "#PWR?" H 7550 2300 50  0001 C CNN
F 1 "GND" V 7555 2422 50  0000 R CNN
F 2 "" H 7550 2550 50  0001 C CNN
F 3 "" H 7550 2550 50  0001 C CNN
	1    7550 2550
	0    -1   -1   0   
$EndComp
Wire Wire Line
	7350 2550 7550 2550
$Comp
L Device:R_Small R2
U 1 1 5FD791B5
P 6850 2650
F 0 "R2" V 6900 2500 50  0000 C CNN
F 1 "1K" V 6850 2650 50  0000 C CNN
F 2 "" H 6850 2650 50  0001 C CNN
F 3 "~" H 6850 2650 50  0001 C CNN
	1    6850 2650
	0    1    1    0   
$EndComp
$Comp
L Device:LED D2
U 1 1 5FD791BF
P 7200 2650
F 0 "D2" H 7200 2750 50  0000 C CNN
F 1 "LED" H 7050 2700 50  0000 C CNN
F 2 "" H 7200 2650 50  0001 C CNN
F 3 "~" H 7200 2650 50  0001 C CNN
	1    7200 2650
	-1   0    0    1   
$EndComp
Wire Wire Line
	6550 2650 6750 2650
Wire Wire Line
	6950 2650 7050 2650
$Comp
L power:GND #PWR?
U 1 1 5FD791CB
P 7550 2650
F 0 "#PWR?" H 7550 2400 50  0001 C CNN
F 1 "GND" V 7555 2522 50  0000 R CNN
F 2 "" H 7550 2650 50  0001 C CNN
F 3 "" H 7550 2650 50  0001 C CNN
	1    7550 2650
	0    -1   -1   0   
$EndComp
Wire Wire Line
	7350 2650 7550 2650
Wire Wire Line
	6550 4550 6750 4550
Wire Wire Line
	6550 4450 6750 4450
Text GLabel 6750 4550 2    50   Input ~ 0
INT1
Text GLabel 6750 4450 2    50   Input ~ 0
INT0
Text GLabel 7600 4300 0    50   Input ~ 0
INT0
$Comp
L Device:C_Small C5
U 1 1 5FD887BE
P 8000 4400
F 0 "C5" V 8150 4400 50  0000 C CNN
F 1 "0.1uF" V 8250 4400 50  0000 C CNN
F 2 "" H 8000 4400 50  0001 C CNN
F 3 "~" H 8000 4400 50  0001 C CNN
	1    8000 4400
	1    0    0    -1  
$EndComp
$Comp
L power:GND #PWR?
U 1 1 5FD8CF3F
P 8000 4500
F 0 "#PWR?" H 8000 4250 50  0001 C CNN
F 1 "GND" H 8005 4327 50  0000 C CNN
F 2 "" H 8000 4500 50  0001 C CNN
F 3 "" H 8000 4500 50  0001 C CNN
	1    8000 4500
	1    0    0    -1  
$EndComp
Text GLabel 7600 4850 0    50   Input ~ 0
INT1
$Comp
L Device:C_Small C6
U 1 1 5FD8F5A5
P 8000 4950
F 0 "C6" V 8150 4950 50  0000 C CNN
F 1 "0.1uF" V 8250 4950 50  0000 C CNN
F 2 "" H 8000 4950 50  0001 C CNN
F 3 "~" H 8000 4950 50  0001 C CNN
	1    8000 4950
	1    0    0    -1  
$EndComp
$Comp
L power:GND #PWR?
U 1 1 5FD8F5B3
P 8000 5050
F 0 "#PWR?" H 8000 4800 50  0001 C CNN
F 1 "GND" H 8005 4877 50  0000 C CNN
F 2 "" H 8000 5050 50  0001 C CNN
F 3 "" H 8000 5050 50  0001 C CNN
	1    8000 5050
	1    0    0    -1  
$EndComp
Text GLabel 5050 2550 0    50   Input ~ 0
5v
Wire Wire Line
	5050 2550 5350 2550
Wire Wire Line
	7600 4300 8000 4300
Wire Wire Line
	7600 4850 8000 4850
$EndSCHEMATC
