EESchema Schematic File Version 4
EELAYER 30 0
EELAYER END
$Descr A4 11693 8268
encoding utf-8
Sheet 1 1
Title ""
Date ""
Rev ""
Comp ""
Comment1 ""
Comment2 ""
Comment3 ""
Comment4 ""
$EndDescr
$Comp
L rotary_encoder:ATmega328P-PU U1
U 1 1 5FD6335B
P 4000 3750
F 0 "U1" H 4500 5250 50  0000 R CNN
F 1 "ATmega328P-PU" V 3800 4100 50  0000 R CNN
F 2 "Package_DIP:DIP-28_W7.62mm" H 4000 3750 50  0001 C CIN
F 3 "http://ww1.microchip.com/downloads/en/DeviceDoc/ATmega328_P%20AVR%20MCU%20with%20picoPower%20Technology%20Data%20Sheet%2040001984A.pdf" H 4000 3750 50  0001 C CNN
	1    4000 3750
	1    0    0    -1  
$EndComp
$Comp
L power:GND #PWR?
U 1 1 5FD655C5
P 3900 5350
F 0 "#PWR?" H 3900 5100 50  0001 C CNN
F 1 "GND" H 3905 5177 50  0000 C CNN
F 2 "" H 3900 5350 50  0001 C CNN
F 3 "" H 3900 5350 50  0001 C CNN
	1    3900 5350
	1    0    0    -1  
$EndComp
$Comp
L power:GND #PWR?
U 1 1 5FD65BA1
P 4100 5350
F 0 "#PWR?" H 4100 5100 50  0001 C CNN
F 1 "GND" H 4105 5177 50  0000 C CNN
F 2 "" H 4100 5350 50  0001 C CNN
F 3 "" H 4100 5350 50  0001 C CNN
	1    4100 5350
	1    0    0    -1  
$EndComp
Wire Wire Line
	3900 5150 3900 5350
Wire Wire Line
	4100 5150 4100 5350
$Comp
L Device:C_Small C1
U 1 1 5FD661EC
P 3100 2750
F 0 "C1" H 3192 2796 50  0000 L CNN
F 1 "0.1uF" H 3192 2705 50  0000 L CNN
F 2 "" H 3100 2750 50  0001 C CNN
F 3 "~" H 3100 2750 50  0001 C CNN
	1    3100 2750
	1    0    0    -1  
$EndComp
Wire Wire Line
	3100 2650 3100 2550
Wire Wire Line
	3100 2550 3400 2550
$Comp
L power:GND #PWR?
U 1 1 5FD6695A
P 3100 2950
F 0 "#PWR?" H 3100 2700 50  0001 C CNN
F 1 "GND" H 3105 2777 50  0000 C CNN
F 2 "" H 3100 2950 50  0001 C CNN
F 3 "" H 3100 2950 50  0001 C CNN
	1    3100 2950
	1    0    0    -1  
$EndComp
Wire Wire Line
	3100 2950 3100 2850
$Comp
L Device:C_Small C3
U 1 1 5FD66E6E
P 4250 2050
F 0 "C3" V 4021 2050 50  0000 C CNN
F 1 "0.1uF" V 4112 2050 50  0000 C CNN
F 2 "" H 4250 2050 50  0001 C CNN
F 3 "~" H 4250 2050 50  0001 C CNN
	1    4250 2050
	0    1    1    0   
$EndComp
$Comp
L Device:C_Small C2
U 1 1 5FD67C59
P 3850 2050
F 0 "C2" V 3621 2050 50  0000 C CNN
F 1 "0.1uF" V 3712 2050 50  0000 C CNN
F 2 "" H 3850 2050 50  0001 C CNN
F 3 "~" H 3850 2050 50  0001 C CNN
	1    3850 2050
	0    1    1    0   
$EndComp
$Comp
L power:GND #PWR?
U 1 1 5FD68264
P 3700 2050
F 0 "#PWR?" H 3700 1800 50  0001 C CNN
F 1 "GND" V 3705 1922 50  0000 R CNN
F 2 "" H 3700 2050 50  0001 C CNN
F 3 "" H 3700 2050 50  0001 C CNN
	1    3700 2050
	0    1    1    0   
$EndComp
$Comp
L power:GND #PWR?
U 1 1 5FD68B49
P 4400 2050
F 0 "#PWR?" H 4400 1800 50  0001 C CNN
F 1 "GND" V 4405 1922 50  0000 R CNN
F 2 "" H 4400 2050 50  0001 C CNN
F 3 "" H 4400 2050 50  0001 C CNN
	1    4400 2050
	0    -1   -1   0   
$EndComp
Wire Wire Line
	3950 2050 4000 2050
Wire Wire Line
	4000 2050 4000 2250
Wire Wire Line
	3700 2050 3750 2050
Wire Wire Line
	4150 2050 4100 2050
Wire Wire Line
	4100 2050 4100 2250
Wire Wire Line
	4350 2050 4400 2050
Text GLabel 3800 1550 0    50   Input ~ 0
5V
Wire Wire Line
	4000 2050 4100 2050
Connection ~ 4000 2050
Connection ~ 4100 2050
Wire Wire Line
	3800 1550 4000 1550
Wire Wire Line
	4000 1550 4000 2050
Text GLabel 5200 3050 2    50   Input ~ 0
SCK
Text GLabel 5200 2950 2    50   Input ~ 0
MISO
Text GLabel 5200 2850 2    50   Input ~ 0
MOSI
Text GLabel 5200 4050 2    50   Input ~ 0
RST
$Comp
L Device:R_Small R1
U 1 1 5FD6A301
P 5100 3850
F 0 "R1" H 5159 3896 50  0000 L CNN
F 1 "10K" H 5159 3805 50  0000 L CNN
F 2 "" H 5100 3850 50  0001 C CNN
F 3 "~" H 5100 3850 50  0001 C CNN
	1    5100 3850
	1    0    0    -1  
$EndComp
Wire Wire Line
	4600 4050 5100 4050
Wire Wire Line
	5100 3950 5100 4050
Connection ~ 5100 4050
Wire Wire Line
	5100 4050 5200 4050
Text GLabel 5200 3650 2    50   Input ~ 0
5V
Wire Wire Line
	5100 3750 5100 3650
Wire Wire Line
	5100 3650 5200 3650
$Comp
L Device:R_Small R3
U 1 1 5FD6C37C
P 5400 5350
F 0 "R3" H 5200 5400 50  0000 L CNN
F 1 "10K" H 5200 5300 50  0000 L CNN
F 2 "" H 5400 5350 50  0001 C CNN
F 3 "~" H 5400 5350 50  0001 C CNN
	1    5400 5350
	1    0    0    -1  
$EndComp
$Comp
L Device:C_Small C5
U 1 1 5FD6C6A0
P 5600 5350
F 0 "C5" H 5692 5396 50  0000 L CNN
F 1 "0.1uF" H 5692 5305 50  0000 L CNN
F 2 "" H 5600 5350 50  0001 C CNN
F 3 "~" H 5600 5350 50  0001 C CNN
	1    5600 5350
	1    0    0    -1  
$EndComp
$Comp
L power:GND #PWR?
U 1 1 5FD6F854
P 5600 5450
F 0 "#PWR?" H 5600 5200 50  0001 C CNN
F 1 "GND" H 5605 5277 50  0000 C CNN
F 2 "" H 5600 5450 50  0001 C CNN
F 3 "" H 5600 5450 50  0001 C CNN
	1    5600 5450
	1    0    0    -1  
$EndComp
$Comp
L Device:R_Small R2
U 1 1 5FD75E37
P 5950 4550
F 0 "R2" H 5800 4600 50  0000 L CNN
F 1 "10K" H 5750 4500 50  0000 L CNN
F 2 "" H 5950 4550 50  0001 C CNN
F 3 "~" H 5950 4550 50  0001 C CNN
	1    5950 4550
	1    0    0    -1  
$EndComp
$Comp
L Device:C_Small C4
U 1 1 5FD75E41
P 6150 4550
F 0 "C4" H 6242 4596 50  0000 L CNN
F 1 "0.1uF" H 6242 4505 50  0000 L CNN
F 2 "" H 6150 4550 50  0001 C CNN
F 3 "~" H 6150 4550 50  0001 C CNN
	1    6150 4550
	1    0    0    -1  
$EndComp
$Comp
L power:GND #PWR?
U 1 1 5FD75E4F
P 6150 4650
F 0 "#PWR?" H 6150 4400 50  0001 C CNN
F 1 "GND" H 6155 4477 50  0000 C CNN
F 2 "" H 6150 4650 50  0001 C CNN
F 3 "" H 6150 4650 50  0001 C CNN
	1    6150 4650
	1    0    0    -1  
$EndComp
Wire Wire Line
	4600 4550 5200 4550
Wire Wire Line
	5200 4550 5200 5250
Wire Wire Line
	5200 5250 5400 5250
Connection ~ 5600 5250
Wire Wire Line
	4600 4450 5950 4450
Connection ~ 6150 4450
$Comp
L Device:Crystal Y1
U 1 1 5FD7C309
P 6000 3400
F 0 "Y1" V 5954 3531 50  0000 L CNN
F 1 "16MHz" V 6045 3531 50  0000 L CNN
F 2 "" H 6000 3400 50  0001 C CNN
F 3 "~" H 6000 3400 50  0001 C CNN
	1    6000 3400
	0    1    1    0   
$EndComp
$Comp
L Device:C_Small C7
U 1 1 5FD7DBEC
P 6200 3650
F 0 "C7" V 6450 3650 50  0000 C CNN
F 1 "0.1uF" V 6350 3650 50  0000 C CNN
F 2 "" H 6200 3650 50  0001 C CNN
F 3 "~" H 6200 3650 50  0001 C CNN
	1    6200 3650
	0    1    1    0   
$EndComp
$Comp
L Device:C_Small C6
U 1 1 5FD7F17A
P 6200 3150
F 0 "C6" V 5971 3150 50  0000 C CNN
F 1 "0.1uF" V 6062 3150 50  0000 C CNN
F 2 "" H 6200 3150 50  0001 C CNN
F 3 "~" H 6200 3150 50  0001 C CNN
	1    6200 3150
	0    1    1    0   
$EndComp
Wire Wire Line
	6300 3150 6400 3150
Wire Wire Line
	6400 3150 6400 3400
Wire Wire Line
	6400 3650 6300 3650
$Comp
L power:GND #PWR?
U 1 1 5FD7FC6F
P 6600 3400
F 0 "#PWR?" H 6600 3150 50  0001 C CNN
F 1 "GND" H 6605 3227 50  0000 C CNN
F 2 "" H 6600 3400 50  0001 C CNN
F 3 "" H 6600 3400 50  0001 C CNN
	1    6600 3400
	1    0    0    -1  
$EndComp
Wire Wire Line
	6400 3400 6600 3400
Connection ~ 6400 3400
Wire Wire Line
	6400 3400 6400 3650
Wire Wire Line
	6000 3250 6000 3150
Wire Wire Line
	6000 3150 6100 3150
Wire Wire Line
	6000 3550 6000 3650
Wire Wire Line
	6000 3650 6100 3650
Wire Wire Line
	4600 3150 6000 3150
Connection ~ 6000 3150
Wire Wire Line
	4600 3250 5750 3250
Wire Wire Line
	5750 3250 5750 3650
Wire Wire Line
	5750 3650 6000 3650
Connection ~ 6000 3650
$Comp
L Device:Rotary_Encoder SW1
U 1 1 5FD83C40
P 7400 4900
F 0 "SW1" H 7630 4946 50  0000 L CNN
F 1 "Rotary_Encoder" H 7630 4855 50  0000 L CNN
F 2 "" H 7250 5060 50  0001 C CNN
F 3 "~" H 7400 5160 50  0001 C CNN
	1    7400 4900
	1    0    0    -1  
$EndComp
Wire Wire Line
	6150 4450 6950 4450
Wire Wire Line
	6950 4450 6950 4800
Wire Wire Line
	6950 4800 7100 4800
Wire Wire Line
	7100 5000 6950 5000
Wire Wire Line
	6950 5000 6950 5250
Wire Wire Line
	6950 5250 5600 5250
$Comp
L power:GND #PWR?
U 1 1 5FD880CA
P 6750 4950
F 0 "#PWR?" H 6750 4700 50  0001 C CNN
F 1 "GND" H 6755 4777 50  0000 C CNN
F 2 "" H 6750 4950 50  0001 C CNN
F 3 "" H 6750 4950 50  0001 C CNN
	1    6750 4950
	1    0    0    -1  
$EndComp
Wire Wire Line
	6750 4950 6750 4900
Wire Wire Line
	6750 4900 7100 4900
$Comp
L Display_Character:RC1602A U2
U 1 1 5FD8E529
P 7850 2800
F 0 "U2" H 8100 3450 50  0000 C CNN
F 1 "RC1602A" V 7850 2800 50  0000 C CNN
F 2 "Display:RC1602A" H 7950 2000 50  0001 C CNN
F 3 "http://www.raystar-optronics.com/down.php?ProID=18" H 7950 2700 50  0001 C CNN
	1    7850 2800
	1    0    0    -1  
$EndComp
$Comp
L power:GND #PWR?
U 1 1 5FD8EEA1
P 7850 3650
F 0 "#PWR?" H 7850 3400 50  0001 C CNN
F 1 "GND" H 7855 3477 50  0000 C CNN
F 2 "" H 7850 3650 50  0001 C CNN
F 3 "" H 7850 3650 50  0001 C CNN
	1    7850 3650
	1    0    0    -1  
$EndComp
Wire Wire Line
	7850 3500 7850 3650
Text GLabel 7750 1950 0    50   Input ~ 0
5V
Wire Wire Line
	7750 1950 7850 1950
Wire Wire Line
	7850 1950 7850 2100
NoConn ~ 7450 2600
NoConn ~ 7450 2700
NoConn ~ 7450 2800
NoConn ~ 7450 2900
Text GLabel 4700 2550 2    50   Input ~ 0
PB0
Text GLabel 4700 2650 2    50   Input ~ 0
PB1
Text GLabel 4700 2750 2    50   Input ~ 0
PB2
Text GLabel 4700 2850 2    50   Input ~ 0
PB3
Wire Wire Line
	4600 2550 4700 2550
Wire Wire Line
	4600 2650 4700 2650
Wire Wire Line
	4600 2750 4700 2750
Wire Wire Line
	4600 2850 5200 2850
Text GLabel 7300 3000 0    50   Input ~ 0
PB0
Text GLabel 7300 3100 0    50   Input ~ 0
PB1
Text GLabel 7300 3200 0    50   Input ~ 0
PB2
Text GLabel 7300 3300 0    50   Input ~ 0
PB3
Wire Wire Line
	7300 3000 7450 3000
Wire Wire Line
	7300 3100 7450 3100
Wire Wire Line
	7300 3200 7450 3200
Wire Wire Line
	7300 3300 7450 3300
$Comp
L power:GND #PWR?
U 1 1 5FD9FB3B
P 8800 3000
F 0 "#PWR?" H 8800 2750 50  0001 C CNN
F 1 "GND" H 8805 2827 50  0000 C CNN
F 2 "" H 8800 3000 50  0001 C CNN
F 3 "" H 8800 3000 50  0001 C CNN
	1    8800 3000
	1    0    0    -1  
$EndComp
Text GLabel 8450 3100 2    50   Input ~ 0
5V
Wire Wire Line
	8250 3000 8800 3000
Wire Wire Line
	8250 3100 8450 3100
Text GLabel 4700 2950 2    50   Input ~ 0
PB4
Text GLabel 4700 3050 2    50   Input ~ 0
PB5
Wire Wire Line
	4600 2950 5200 2950
Wire Wire Line
	4600 3050 5200 3050
Text GLabel 7300 2300 0    50   Input ~ 0
PB4
Wire Wire Line
	7300 2300 7450 2300
$Comp
L power:GND #PWR?
U 1 1 5FDAD823
P 7300 2400
F 0 "#PWR?" H 7300 2150 50  0001 C CNN
F 1 "GND" V 7305 2272 50  0000 R CNN
F 2 "" H 7300 2400 50  0001 C CNN
F 3 "" H 7300 2400 50  0001 C CNN
	1    7300 2400
	0    1    1    0   
$EndComp
Wire Wire Line
	7300 2400 7450 2400
Text GLabel 7300 2500 0    50   Input ~ 0
PB5
Wire Wire Line
	7300 2500 7450 2500
$Comp
L Device:R_POT RV1
U 1 1 5FDB13F8
P 8600 2600
F 0 "RV1" H 8530 2554 50  0000 R CNN
F 1 "100K" H 8530 2645 50  0000 R CNN
F 2 "" H 8600 2600 50  0001 C CNN
F 3 "~" H 8600 2600 50  0001 C CNN
	1    8600 2600
	-1   0    0    1   
$EndComp
Wire Wire Line
	8250 2600 8450 2600
$Comp
L power:GND #PWR?
U 1 1 5FDB420E
P 8600 2750
F 0 "#PWR?" H 8600 2500 50  0001 C CNN
F 1 "GND" H 8605 2577 50  0000 C CNN
F 2 "" H 8600 2750 50  0001 C CNN
F 3 "" H 8600 2750 50  0001 C CNN
	1    8600 2750
	1    0    0    -1  
$EndComp
Text GLabel 8650 2400 2    50   Input ~ 0
5V
Wire Wire Line
	8600 2450 8600 2400
Wire Wire Line
	8600 2400 8650 2400
Connection ~ 5950 4450
Wire Wire Line
	5950 4450 6150 4450
Wire Wire Line
	5950 4650 6150 4650
Connection ~ 6150 4650
Connection ~ 5400 5250
Wire Wire Line
	5400 5250 5600 5250
Wire Wire Line
	5400 5450 5600 5450
Connection ~ 5600 5450
$EndSCHEMATC
